…
``` r
library(tidyverse)
library(rvest)
source("src/schedule-utils.R")
```

`get_schedule_all` 함수로 공연 스케줄을 불러옵니다. `yy`년 `mm`월의 스케줄을 불러오고 싶으면 `date_yymm` 인자에 `yymm`를 입력합니다. `date_yymm` 인자를 생략하면 현재 날짜를 기준으로 자동으로 설정됩니다.

``` r
schedule <- get_schedule_all(date_yymm = 1901)
schedule %>% select(date, stage, team)
```

    ## # A tibble: 92 x 3
    ##     date stage    team                        
    ##    <dbl> <chr>    <chr>                       
    ##  1     1 올댓재즈 김준범 Trio+1               
    ##  2     1 올댓재즈 조광현 Quartet+1            
    ##  3     2 올댓재즈 차유빈 Trio                 
    ##  4     2 올댓재즈 이지영 New Trio+1           
    ##  5     2 에반스   이한얼 오르간 트리오  + 나겸
    ##  6     3 올댓재즈 TBA                         
    ##  7     3 올댓재즈 Vian Quintet                
    ##  8     3 에반스   이수정Quartet               
    ##  9     4 올댓재즈 Pete Jung Ko ..             
    ## 10     4 올댓재즈 박주원 Electric Band        
    ## # ... with 82 more rows
…
